400 76
4 1 20 284 276 
0
5 2 0 21 161 111 
1
5 3 1 22 306 343 
2
5 4 2 23 239 353 
3
5 5 3 24 58 55 
4
5 6 4 25 7 295 
5
5 7 5 26 206 24 
6
5 8 6 27 349 86 
7
5 9 7 28 208 276 
8
5 10 8 29 32 335 
9
5 11 9 30 267 361 
10
5 12 10 31 286 277 
11
5 13 11 32 140 17 
12
5 14 12 33 128 332 
13
5 15 13 34 178 35 
14
5 16 14 35 220 274 
15
5 17 15 36 290 391 
16
5 18 16 37 344 370 
17
5 19 17 38 158 366 
18
4 18 39 339 166 
19
5 21 40 0 103 228 
20
6 22 20 41 1 113 13 
-1
6 23 21 42 2 368 382 
-1
6 24 22 43 3 181 318 
-1
6 25 23 44 4 261 249 
-1
6 26 24 45 5 36 44 
-1
6 27 25 46 6 60 36 
-1
6 28 26 47 7 263 266 
-1
6 29 27 48 8 394 220 
-1
6 30 28 49 9 1 353 
-1
6 31 29 50 10 41 200 
-1
6 32 30 51 11 130 111 
-1
6 33 31 52 12 201 279 
-1
6 34 32 53 13 91 35 
-1
6 35 33 54 14 117 327 
-1
6 36 34 55 15 179 342 
-1
6 37 35 56 16 311 375 
-1
6 38 36 57 17 330 299 
-1
6 39 37 58 18 350 79 
-1
5 38 59 19 364 282 
21
5 41 60 20 239 30 
22
6 42 40 61 21 344 105 
-1
6 43 41 62 22 362 228 
-1
6 44 42 63 23 49 382 
-1
6 45 43 64 24 367 98 
-1
6 46 44 65 25 100 16 
-1
6 47 45 66 26 209 142 
-1
6 48 46 67 27 203 212 
-1
6 49 47 68 28 121 315 
-1
6 50 48 69 29 34 231 
-1
6 51 49 70 30 350 137 
-1
6 52 50 71 31 344 119 
-1
6 53 51 72 32 83 393 
-1
6 54 52 73 33 137 263 
-1
6 55 53 74 34 145 227 
-1
6 56 54 75 35 393 146 
-1
6 57 55 76 36 295 219 
-1
6 58 56 77 37 211 399 
-1
6 59 57 78 38 15 369 
-1
5 58 79 39 243 6 
23
5 61 80 40 356 281 
24
6 62 60 81 41 385 371 
-1
6 63 61 82 42 1 235 
-1
6 64 62 83 43 367 104 
-1
6 65 63 84 44 251 155 
-1
6 66 64 85 45 356 264 
-1
6 67 65 86 46 273 43 
-1
6 68 66 87 47 154 129 
-1
6 69 67 88 48 146 384 
-1
6 70 68 89 49 37 57 
-1
6 71 69 90 50 192 35 
-1
6 72 70 91 51 73 301 
-1
6 73 71 92 52 308 232 
-1
6 74 72 93 53 351 86 
-1
6 75 73 94 54 243 388 
-1
6 76 74 95 55 151 221 
-1
6 77 75 96 56 351 154 
-1
6 78 76 97 57 399 303 
-1
6 79 77 98 58 177 151 
-1
5 78 99 59 326 212 
25
5 81 100 60 117 175 
26
6 82 80 101 61 299 77 
-1
6 83 81 102 62 246 391 
-1
6 84 82 103 63 65 365 
-1
6 85 83 104 64 125 373 
-1
6 86 84 105 65 120 170 
-1
6 87 85 106 66 276 373 
-1
6 88 86 107 67 297 132 
-1
6 89 87 108 68 255 365 
-1
6 90 88 109 69 194 293 
-1
6 91 89 110 70 141 211 
-1
6 92 90 111 71 115 24 
-1
6 93 91 112 72 74 382 
-1
6 94 92 113 73 312 143 
-1
6 95 93 114 74 9 266 
-1
6 96 94 115 75 216 112 
-1
6 97 95 116 76 114 98 
-1
6 98 96 117 77 349 224 
-1
6 99 97 118 78 342 356 
-1
5 98 119 79 69 339 
27
5 101 120 80 266 1 
28
6 102 100 121 81 360 338 
-1
6 103 101 122 82 323 18 
-1
6 104 102 123 83 379 78 
-1
6 105 103 124 84 239 35 
-1
6 106 104 125 85 325 260 
-1
6 107 105 126 86 389 200 
-1
6 108 106 127 87 144 178 
-1
6 109 107 128 88 141 110 
-1
6 110 108 129 89 306 25 
-1
6 111 109 130 90 82 252 
-1
6 112 110 131 91 12 339 
-1
6 113 111 132 92 55 388 
-1
6 114 112 133 93 355 358 
-1
6 115 113 134 94 8 218 
-1
6 116 114 135 95 29 186 
-1
6 117 115 136 96 19 218 
-1
6 118 116 137 97 286 264 
-1
6 119 117 138 98 7 307 
-1
5 118 139 99 260 4 
29
5 121 140 100 60 0 
30
6 122 120 141 101 48 332 
-1
6 123 121 142 102 275 345 
-1
6 124 122 143 103 54 97 
-1
6 125 123 144 104 126 363 
-1
6 126 124 145 105 54 325 
-1
6 127 125 146 106 259 181 
-1
6 128 126 147 107 92 21 
-1
6 129 127 148 108 222 340 
-1
6 130 128 149 109 212 218 
-1
6 131 129 150 110 341 49 
-1
6 132 130 151 111 179 139 
-1
6 133 131 152 112 224 266 
-1
6 134 132 153 113 114 229 
-1
6 135 133 154 114 248 111 
-1
6 136 134 155 115 252 365 
-1
6 137 135 156 116 142 141 
-1
6 138 136 157 117 186 197 
-1
6 139 137 158 118 31 208 
-1
5 138 159 119 61 221 
31
5 141 160 120 103 292 
32
6 142 140 161 121 348 396 
-1
6 143 141 162 122 181 221 
-1
6 144 142 163 123 334 208 
-1
6 145 143 164 124 254 120 
-1
6 146 144 165 125 138 338 
-1
6 147 145 166 126 244 226 
-1
6 148 146 167 127 285 45 
-1
6 149 147 168 128 215 359 
-1
6 150 148 169 129 44 288 
-1
6 151 149 170 130 172 333 
-1
6 152 150 171 131 202 306 
-1
6 153 151 172 132 110 50 
-1
6 154 152 173 133 253 246 
-1
6 155 153 174 134 370 244 
-1
6 156 154 175 135 252 15 
-1
6 157 155 176 136 336 320 
-1
6 158 156 177 137 363 326 
-1
6 159 157 178 138 31 44 
-1
5 158 179 139 91 73 
33
5 161 180 140 287 281 
34
6 162 160 181 141 203 134 
-1
6 163 161 182 142 269 19 
-1
6 164 162 183 143 20 217 
-1
6 165 163 184 144 290 235 
-1
6 166 164 185 145 131 34 
-1
6 167 165 186 146 189 343 
-1
6 168 166 187 147 264 298 
-1
6 169 167 188 148 211 40 
-1
6 170 168 189 149 143 280 
-1
6 171 169 190 150 116 140 
-1
6 172 170 191 151 284 367 
-1
6 173 171 192 152 319 357 
-1
6 174 172 193 153 301 282 
-1
6 175 173 194 154 73 250 
-1
6 176 174 195 155 314 251 
-1
6 177 175 196 156 186 221 
-1
6 178 176 197 157 32 95 
-1
6 179 177 198 158 344 237 
-1
5 178 199 159 191 54 
35
5 181 200 160 40 76 
36
6 182 180 201 161 49 370 
-1
6 183 181 202 162 18 340 
-1
6 184 182 203 163 124 367 
-1
6 185 183 204 164 325 197 
-1
6 186 184 205 165 73 242 
-1
6 187 185 206 166 267 322 
-1
6 188 186 207 167 85 388 
-1
6 189 187 208 168 142 29 
-1
6 190 188 209 169 376 337 
-1
6 191 189 210 170 315 208 
-1
6 192 190 211 171 261 59 
-1
6 193 191 212 172 342 126 
-1
6 194 192 213 173 33 181 
-1
6 195 193 214 174 78 248 
-1
6 196 194 215 175 312 13 
-1
6 197 195 216 176 18 116 
-1
6 198 196 217 177 60 105 
-1
6 199 197 218 178 324 60 
-1
5 198 219 179 175 230 
37
5 201 220 180 189 67 
38
6 202 200 221 181 147 13 
-1
6 203 201 222 182 305 109 
-1
6 204 202 223 183 15 184 
-1
6 205 203 224 184 356 175 
-1
6 206 204 225 185 293 34 
-1
6 207 205 226 186 78 116 
-1
6 208 206 227 187 258 180 
-1
6 209 207 228 188 75 258 
-1
6 210 208 229 189 38 127 
-1
6 211 209 230 190 86 93 
-1
6 212 210 231 191 197 342 
-1
6 213 211 232 192 39 234 
-1
6 214 212 233 193 77 223 
-1
6 215 213 234 194 346 198 
-1
6 216 214 235 195 345 361 
-1
6 217 215 236 196 306 168 
-1
6 218 216 237 197 388 80 
-1
6 219 217 238 198 253 21 
-1
5 218 239 199 210 175 
39
5 221 240 200 106 51 
40
6 222 220 241 201 12 230 
-1
6 223 221 242 202 25 240 
-1
6 224 222 243 203 204 284 
-1
6 225 223 244 204 34 67 
-1
6 226 224 245 205 263 310 
-1
6 227 225 246 206 200 370 
-1
6 228 226 247 207 95 280 
-1
6 229 227 248 208 79 262 
-1
6 230 228 249 209 300 347 
-1
6 231 229 250 210 172 124 
-1
6 232 230 251 211 97 128 
-1
6 233 231 252 212 268 142 
-1
6 234 232 253 213 6 244 
-1
6 235 233 254 214 280 242 
-1
6 236 234 255 215 38 117 
-1
6 237 235 256 216 231 129 
-1
6 238 236 257 217 373 116 
-1
6 239 237 258 218 132 10 
-1
5 238 259 219 358 363 
41
5 241 260 220 194 247 
42
6 242 240 261 221 107 81 
-1
6 243 241 262 222 61 49 
-1
6 244 242 263 223 62 156 
-1
6 245 243 264 224 275 80 
-1
6 246 244 265 225 16 342 
-1
6 247 245 266 226 34 165 
-1
6 248 246 267 227 1 386 
-1
6 249 247 268 228 36 76 
-1
6 250 248 269 229 95 305 
-1
6 251 249 270 230 265 124 
-1
6 252 250 271 231 2 16 
-1
6 253 251 272 232 99 129 
-1
6 254 252 273 233 7 197 
-1
6 255 253 274 234 120 156 
-1
6 256 254 275 235 27 170 
-1
6 257 255 276 236 259 312 
-1
6 258 256 277 237 331 297 
-1
6 259 257 278 238 188 64 
-1
5 258 279 239 122 89 
43
5 261 280 240 25 48 
44
6 262 260 281 241 67 311 
-1
6 263 261 282 242 341 218 
-1
6 264 262 283 243 191 280 
-1
6 265 263 284 244 193 106 
-1
6 266 264 285 245 40 110 
-1
6 267 265 286 246 168 315 
-1
6 268 266 287 247 15 105 
-1
6 269 267 288 248 7 187 
-1
6 270 268 289 249 332 113 
-1
6 271 269 290 250 188 140 
-1
6 272 270 291 251 84 81 
-1
6 273 271 292 252 29 221 
-1
6 274 272 293 253 207 21 
-1
6 275 273 294 254 45 281 
-1
6 276 274 295 255 234 24 
-1
6 277 275 296 256 92 78 
-1
6 278 276 297 257 43 103 
-1
6 279 277 298 258 348 177 
-1
5 278 299 259 276 250 
45
5 281 300 260 219 15 
46
6 282 280 301 261 41 308 
-1
6 283 281 302 262 125 167 
-1
6 284 282 303 263 53 72 
-1
6 285 283 304 264 313 55 
-1
6 286 284 305 265 282 79 
-1
6 287 285 306 266 312 292 
-1
6 288 286 307 267 135 359 
-1
6 289 287 308 268 265 318 
-1
6 290 288 309 269 399 94 
-1
6 291 289 310 270 41 131 
-1
6 292 290 311 271 264 128 
-1
6 293 291 312 272 161 162 
-1
6 294 292 313 273 225 269 
-1
6 295 293 314 274 256 3 
-1
6 296 294 315 275 232 255 
-1
6 297 295 316 276 122 341 
-1
6 298 296 317 277 122 394 
-1
6 299 297 318 278 17 392 
-1
5 298 319 279 300 196 
47
5 301 320 280 3 302 
48
6 302 300 321 281 314 87 
-1
6 303 301 322 282 181 235 
-1
6 304 302 323 283 94 197 
-1
6 305 303 324 284 223 163 
-1
6 306 304 325 285 323 28 
-1
6 307 305 326 286 263 277 
-1
6 308 306 327 287 42 26 
-1
6 309 307 328 288 18 276 
-1
6 310 308 329 289 13 338 
-1
6 311 309 330 290 40 56 
-1
6 312 310 331 291 338 47 
-1
6 313 311 332 292 39 99 
-1
6 314 312 333 293 323 233 
-1
6 315 313 334 294 203 71 
-1
6 316 314 335 295 171 150 
-1
6 317 315 336 296 157 341 
-1
6 318 316 337 297 371 66 
-1
6 319 317 338 298 361 297 
-1
5 318 339 299 239 306 
49
5 321 340 300 117 228 
50
6 322 320 341 301 178 342 
-1
6 323 321 342 302 143 185 
-1
6 324 322 343 303 73 333 
-1
6 325 323 344 304 374 77 
-1
6 326 324 345 305 359 141 
-1
6 327 325 346 306 156 361 
-1
6 328 326 347 307 380 35 
-1
6 329 327 348 308 233 289 
-1
6 330 328 349 309 139 264 
-1
6 331 329 350 310 355 282 
-1
6 332 330 351 311 92 325 
-1
6 333 331 352 312 318 8 
-1
6 334 332 353 313 383 56 
-1
6 335 333 354 314 31 101 
-1
6 336 334 355 315 259 327 
-1
6 337 335 356 316 261 105 
-1
6 338 336 357 317 54 164 
-1
6 339 337 358 318 89 214 
-1
5 338 359 319 397 258 
51
5 341 360 320 133 339 
52
6 342 340 361 321 134 56 
-1
6 343 341 362 322 36 140 
-1
6 344 342 363 323 76 355 
-1
6 345 343 364 324 265 24 
-1
6 346 344 365 325 187 304 
-1
6 347 345 366 326 290 171 
-1
6 348 346 367 327 149 74 
-1
6 349 347 368 328 254 380 
-1
6 350 348 369 329 164 370 
-1
6 351 349 370 330 380 105 
-1
6 352 350 371 331 305 220 
-1
6 353 351 372 332 294 266 
-1
6 354 352 373 333 325 96 
-1
6 355 353 374 334 126 292 
-1
6 356 354 375 335 190 129 
-1
6 357 355 376 336 232 15 
-1
6 358 356 377 337 131 296 
-1
6 359 357 378 338 329 218 
-1
5 358 379 339 315 294 
53
5 361 380 340 286 302 
54
6 362 360 381 341 331 73 
-1
6 363 361 382 342 31 80 
-1
6 364 362 383 343 239 140 
-1
6 365 363 384 344 133 122 
-1
6 366 364 385 345 284 387 
-1
6 367 365 386 346 74 332 
-1
6 368 366 387 347 3 136 
-1
6 369 367 388 348 384 31 
-1
6 370 368 389 349 152 111 
-1
6 371 369 390 350 85 379 
-1
6 372 370 391 351 163 33 
-1
6 373 371 392 352 166 346 
-1
6 374 372 393 353 262 151 
-1
6 375 373 394 354 290 284 
-1
6 376 374 395 355 289 101 
-1
6 377 375 396 356 80 300 
-1
6 378 376 397 357 163 234 
-1
6 379 377 398 358 386 19 
-1
5 378 399 359 194 388 
55
4 381 360 382 315 
56
5 382 380 361 29 73 
57
5 383 381 362 160 102 
58
5 384 382 363 79 19 
59
5 385 383 364 28 273 
60
5 386 384 365 182 60 
61
5 387 385 366 311 99 
62
5 388 386 367 133 283 
63
5 389 387 368 391 250 
64
5 390 388 369 359 221 
65
5 391 389 370 151 25 
66
5 392 390 371 262 247 
67
5 393 391 372 55 282 
68
5 394 392 373 187 188 
69
5 395 393 374 340 330 
70
5 396 394 375 278 42 
71
5 397 395 376 282 149 
72
5 398 396 377 175 361 
73
5 399 397 378 263 304 
74
4 398 379 0 38 
75
